{
  "page": 2,
  "total_pages": 1000,
  "total_results": 20000,
  "results": [
    {
      "adult": false,
      "backdrop_path": "/628Dep6AxEtDxjZoGP78TsOxYbK.jpg",
      "id": 575264,
      "title": "Mission: Impossible - Dead Reckoning Part One",
      "original_language": "en",
      "original_title": "Mission: Impossible - Dead Reckoning Part One",
      "overview": "Ethan Hunt and his IMF team embark on their most dangerous mission yet: To track down a terrifying new weapon that threatens all of humanity before it falls into the wrong hands. With control of the future and the world's fate at stake and dark forces from Ethan's past closing in, a deadly race around the globe begins. Confronted by a mysterious, all-powerful enemy, Ethan must consider that nothing can matter more than his mission—not even the lives of those he cares about most.",
      "poster_path": "/NNxYkU70HPurnNCSiCjYAmacwm.jpg",
      "media_type": "movie",
      "genre_ids": [
        28,
        53
      ],
      "popularity": 998.192,
      "release_date": "2023-07-08",
      "video": false,
      "vote_average": 7.724,
      "vote_count": 1849
    },
    {
      "adult": false,
      "backdrop_path": "/5y1E8bmBLifA2aSqGSl20VEP3i1.jpg",
      "id": 912916,
      "title": "The Other Zoey",
      "original_language": "en",
      "original_title": "The Other Zoey",
      "overview": "Zoey Miller, a super smart computer major uninterested in romantic love, has her life turned upside down when Zack, the school’s soccer star, gets amnesia and mistakes Zoey for his girlfriend.",
      "poster_path": "/rh9fwqA98ufdx9vP7V6lLhfpfk1.jpg",
      "media_type": "movie",
      "genre_ids": [
        10749,
        18,
        35
      ],
      "popularity": 288.688,
      "release_date": "2023-10-19",
      "video": false,
      "vote_average": 6.975,
      "vote_count": 60
    },
    {
      "adult": false,
      "backdrop_path": "/cofs7Y72FkRjALbOOOz8q7Uty6h.jpg",
      "id": 944952,
      "title": "The Royal Hotel",
      "original_language": "en",
      "original_title": "The Royal Hotel",
      "overview": "After running out of money while backpacking in a tiny, male-dominated town in the Australian outback, two friends resort to a working holiday at the Royal Hotel. When the locals behavior starts crossing the line, the girls find themselves trapped in an unnerving situation that grows rapidly out of their control.",
      "poster_path": "/oJwb2PV1LGxDp6Q3lynrjADxOIv.jpg",
      "media_type": "movie",
      "genre_ids": [
        18,
        53
      ],
      "popularity": 17.408,
      "release_date": "2023-10-06",
      "video": false,
      "vote_average": 6.4,
      "vote_count": 5
    },
    {
      "adult": false,
      "backdrop_path": "/pfAZP7JvTTxqgq7n6A1OYgkAdEW.jpg",
      "id": 894205,
      "title": "Werewolf by Night",
      "original_language": "en",
      "original_title": "Werewolf by Night",
      "overview": "On a dark and somber night, a secret cabal of monster hunters emerge from the shadows and gather at the foreboding Bloodstone Temple following the death of their leader. In a strange and macabre memorial to the leader’s life, the attendees are thrust into a mysterious and deadly competition for a powerful relic—a hunt that will ultimately bring them face to face with a dangerous monster.",
      "poster_path": "/jmv7EbqBuEk4V1U7OoSBaxkwawO.jpg",
      "media_type": "movie",
      "genre_ids": [
        28,
        14,
        27
      ],
      "popularity": 140.35,
      "release_date": "2022-09-25",
      "video": false,
      "vote_average": 7.0,
      "vote_count": 1065
    },
    {
      "adult": false,
      "backdrop_path": "/tC78Pck2YCsUAtEdZwuHYUFYtOj.jpg",
      "id": 926393,
      "title": "The Equalizer 3",
      "original_language": "en",
      "original_title": "The Equalizer 3",
      "overview": "Robert McCall finds himself at home in Southern Italy but he discovers his friends are under the control of local crime bosses. As events turn deadly, McCall knows what he has to do: become his friends' protector by taking on the mafia.",
      "poster_path": "/b0Ej6fnXAP8fK75hlyi2jKqdhHz.jpg",
      "media_type": "movie",
      "genre_ids": [
        28,
        53,
        80
      ],
      "popularity": 1548.953,
      "release_date": "2023-08-30",
      "video": false,
      "vote_average": 7.292,
      "vote_count": 1074
    }
  ]
}
